OrderNumber,OrderDate,CustomerName,StateName,TaxRate,ProductType,OrderArea,CostPerSquareFoot,LaborCostPerSquareFoot,MaterialCost,LaborCost,OrderTax,OrderTotalCost
3,1/7/2016 12:00:00 AM,Bear Bryant,Alabama,0.04,Wood Laminate,12.25,2.25,3.50, 27.56,42.88,2.82,73.26 
4,1/7/2016 12:00:00 AM,Ben Banana,PA,6.75,Wood,94.2,5.15,4.75, 485.130,447.450,62.9491500,995.5291500 
5,1/7/2016 12:00:00 AM,Jenny Jones,MI,5.75,Laminate,33,1.75,2.10, 57.75,69.30,7.305375,134.355375 
