OrderNumber,OrderDate,CustomerName,StateName,TaxRate,ProductType,OrderArea,CostPerSquareFoot,LaborCostPerSquareFoot,MaterialCost,LaborCost,OrderTax,OrderTotalCost
1,1/1/2011 12:00:00 AM,Keith Manecke,IN,6.00,Carpet,44.88,2.25,2.10, 100.9800,94.2480,11.713680,206.941680 
2,1/1/2011 12:00:00 AM,Lebron James,OH,6.25,Wood,23.50,5.15,4.75, 121.0250,111.6250,14.54062500,247.19062500 
3,1/1/2011 12:00:00 AM,Beyonce,MI,5.75,Tile,1000,3.50,4.15, 3500.00,4150.00,439.875000,8089.875000 
